; Engine configuration file.
; It's best edited using the editor UI and not directly,
; since the parameters that go here are not all obvious.
;
; Format:
;   [section] ; section goes between []
;   param=value ; assign values to parameters

config_version=4

_global_script_classes=[ {
"base": "Label",
"class": "AnimatedCounter",
"language": "GDScript",
"path": "res://scripts/AnimatedCounter.gd"
}, {
"base": "Node2D",
"class": "BasicShot",
"language": "GDScript",
"path": "res://scripts/plant/shoots/basic_shot.gd"
}, {
"base": "Node2D",
"class": "Plant",
"language": "GDScript",
"path": "res://scripts/plant/plant.gd"
}, {
"base": "Sprite",
"class": "PlantInPot",
"language": "GDScript",
"path": "res://scripts/wheels/plants/plant_in_pot_hud.gd"
}, {
"base": "Sprite",
"class": "Upgrade",
"language": "GDScript",
"path": "res://scripts/wheels/upgrades/upgrade.gd"
}, {
"base": "Node2D",
"class": "Wheel",
"language": "GDScript",
"path": "res://scripts/wheels/wheel.gd"
} ]
_global_script_class_icons={
"AnimatedCounter": "",
"BasicShot": "",
"Plant": "",
"PlantInPot": "",
"Upgrade": "",
"Wheel": ""
}

[application]

config/name="potage"
run/main_scene="res://scenes/main_menu.tscn"
config/icon="res://icon.png"

[autoload]

music="*res://nodes/music.tscn"

[display]

window/size/width=1440
window/size/height=720
window/stretch/mode="2d"
window/stretch/aspect="keep"

[global]

view=false
anti=false
antialias=false

[gui]

common/drop_mouse_on_gui_input_disabled=true

[input]

click={
"deadzone": 0.5,
"events": [  ]
}

[physics]

common/enable_pause_aware_picking=true

[rendering]

quality/filters/use_fxaa=true
environment/default_environment="res://default_env.tres"
