[gd_scene load_steps=6 format=2]

[ext_resource path="res://assets/cloud_3.png" type="Texture" id=1]
[ext_resource path="res://scripts/explosion.gd" type="Script" id=2]
[ext_resource path="res://musics/explosion.mp3" type="AudioStream" id=3]

[sub_resource type="Curve" id=1]
_data = [ Vector2( 0, 0 ), 0.0, 2.32246, 0, 0, Vector2( 0.242574, 0.677273 ), 1.83636, 1.83636, 0, 0, Vector2( 0.970297, 1 ), -0.0235431, 0.0, 0, 0 ]

[sub_resource type="Gradient" id=2]
colors = PoolColorArray( 1, 1, 1, 1, 1, 1, 1, 0 )

[node name="explosion" type="Node2D"]
script = ExtResource( 2 )

[node name="particles" type="CPUParticles2D" parent="."]
scale = Vector2( 0.5, 0.5 )
emitting = false
amount = 4
one_shot = true
explosiveness = 1.0
texture = ExtResource( 1 )
emission_shape = 1
emission_sphere_radius = 23.52
direction = Vector2( 0, -1 )
spread = 69.37
gravity = Vector2( 0, 0 )
initial_velocity = 180.0
initial_velocity_random = 0.15
angular_velocity = 60.0
angular_velocity_random = 1.0
damping = 100.0
angle = 30.0
angle_random = 1.0
scale_amount_random = 1.0
scale_amount_curve = SubResource( 1 )
color_ramp = SubResource( 2 )

[node name="kill_timer" type="Timer" parent="."]
wait_time = 1.1
one_shot = true
autostart = true

[node name="sound" type="AudioStreamPlayer" parent="."]
stream = ExtResource( 3 )
volume_db = -8.739
autoplay = true
