[gd_scene load_steps=4 format=2]

[ext_resource path="res://assets/bullet_1.png" type="Texture" id=1]
[ext_resource path="res://scripts/plant/shoots/time_back_shot.gd" type="Script" id=2]

[sub_resource type="CircleShape2D" id=1]

[node name="time_back_shot" type="Node2D"]
script = ExtResource( 2 )

[node name="sprite" type="Sprite" parent="."]
scale = Vector2( 0.8, 0.8 )
z_index = 1
texture = ExtResource( 1 )

[node name="body" type="KinematicBody2D" parent="sprite"]
collision_layer = 64
collision_mask = 0

[node name="shape" type="CollisionShape2D" parent="sprite/body"]
shape = SubResource( 1 )
